{
  "project_info": {
    "project_number": "360747975325",
    "project_id": "zikto-965"
  },
  "client": [
    {
      "client_info": {
        "mobilesdk_app_id": "1:360747975325:android:c59836b0e6160520",
        "android_client_info": {
          "package_name": "com.zikto.arki"
        }
      },
      "oauth_client": [],
      "api_key": [
        {
          "current_key": "AIzaSyCefoLxOtcSUdCwzZF1IMOyUTNLkriEt_w"
        }
      ],
      "services": {
        "analytics_service": {
          "status": 1
        },
        "appinvite_service": {
          "status": 1,
          "other_platform_oauth_client": []
        },
        "ads_service": {
          "status": 1
        }
      }
    }
  ],
  "configuration_version": "1"
}